^C:\USERS\FOKAM\ONEDRIVE\РАБОЧИЙ СТОЛ\C++\C++\C++.CPP
C:\USERS\FOKAM\ONEDRIVE\Рабочий стол\C++\C++\X64\DEBUG\VC143.PDB
C:\USERS\FOKAM\ONEDRIVE\Рабочий стол\C++\C++\X64\DEBUG\VC143.IDB
C:\USERS\FOKAM\ONEDRIVE\Рабочий стол\C++\C++\X64\DEBUG\C++.OBJ
