^C:\USERS\FOKAM\ONEDRIVE\РАБОЧИЙ СТОЛ\C++\C++\X64\DEBUG\C++.OBJ
C:\USERS\FOKAM\ONEDRIVE\Рабочий стол\C++\C++\X64\DEBUG\C++.EXE
C:\USERS\FOKAM\ONEDRIVE\Рабочий стол\C++\C++\X64\DEBUG\C++.ILK
C:\USERS\FOKAM\ONEDRIVE\Рабочий стол\C++\C++\X64\DEBUG\C++.PDB
